<!-- Generated by IcoMoon.io -->
<svg version="1.1" xmlns="http://www.w3.org/2000/svg" width="32" height="32" viewBox="0 0 32 32">
<title>log</title>
<path d="M26 14.12v-10.12c0-1.105-0.895-2-2-2h-20c-1.105 0-2 0.895-2 2v24c0 1.105 0.895 2 2 2h9.737c-0.352-0.371-0.66-0.714-0.925-1.028s-0.519-0.638-0.762-0.972h-8.050v-24h20v9.199c0.332 0.111 0.671 0.246 1.015 0.405s0.672 0.331 0.985 0.517z"></path>
<path d="M8 0h2v6h-2z"></path>
<path d="M18 0h2v6h-2z"></path>
<path d="M4 12v-2h18v2z"></path>
<path d="M4 18v-2h9.857c-0.288 0.311-0.571 0.644-0.847 1s-0.498 0.689-0.665 1h-8.345zM4 24v-2h7.037c-0.033 0.32-0.050 0.653-0.050 1s0.017 0.68 0.050 1h-7.037zM21 32c-4.971 0-9-4.029-9-9s4.029-9 9-9c4.971 0 9 4.029 9 9s-4.029 9-9 9zM21 30c3.866 0 7-3.134 7-7s-3.134-7-7-7c-3.866 0-7 3.134-7 7s3.134 7 7 7z"></path>
<path d="M20 18h2v8h-2z"></path>
<path d="M26 24v2h-4v-2z"></path>
</svg>
