<!-- Generated by IcoMoon.io -->
<svg version="1.1" xmlns="http://www.w3.org/2000/svg" width="32" height="32" viewBox="0 0 32 32">
<title>memory</title>
<path d="M23.719 9.653v6.316h-15.625v-6.316h15.625zM22.156 14.389v-3.158h-12.5v3.158h12.5z"></path>
<path d="M29.813 9.1c-0.863 0-1.563 0.707-1.563 1.579s0.7 1.579 1.563 1.579c0.063 0 0.125-0.006 0.188-0.013v15.755h-18.781v-5.201h-1.563v5.201h-7.656v-15.758c0.063 0.009 0.125 0.013 0.188 0.013 0.862 0 1.563-0.707 1.563-1.579s-0.7-1.579-1.563-1.579c-0.063 0-0.125 0.006-0.188 0.013v-5.109h28v5.113c-0.063-0.009-0.125-0.013-0.188-0.013zM28.438 7.843v-2.264h-24.875v2.264c1.034 0.515 1.75 1.592 1.75 2.836s-0.716 2.321-1.75 2.836v12.906h4.531v-5.201h4.688v5.201h1.938v-5.201h1.563v5.201h1.938v-5.201h1.563v5.201h1.938v-5.201h1.563v5.201h5.156v-12.906c-1.034-0.515-1.75-1.592-1.75-2.836s0.716-2.321 1.75-2.836z"></path>
</svg>
