<svg xmlns="http://www.w3.org/2000/svg" width="16" height="16" viewBox="0 0 16 16">
  <g fill="none">
    <path fill="#000" d="M14,3.4750201 L11.4342822,1 L2,1 L2,15 L14,15 L14,3.4750201 Z M2,0 L11.8379957,0 L15,3.05022795 L15,15 C15,15.5522847 14.5522847,16 14,16 L2,16 C1.44771525,16 1,15.5522847 1,15 L1,1 C1,0.44771525 1.44771525,1.01453063e-16 2,0 Z"/>
    <path fill="#000" d="M15,3.03719995 L15,4 L12,4 C11.4477153,4 11,3.55228475 11,3 L11,0 L12.0648835,0 L15,3.03719995 Z M12,1.5 L12,2.98123871 L13.4794568,2.98123871 L12,1.5 Z"/>
    <rect width="1" height="1" x="3.5" y="5" fill="#000"/>
    <rect width="1" height="1" x="5.5" y="5" fill="#000"/>
    <rect width="1" height="1" x="7.5" y="5" fill="#000"/>
    <rect width="1" height="1" x="9.5" y="5" fill="#000"/>
    <rect width="1" height="1" x="11.5" y="5" fill="#000"/>
    <rect width="1" height="1" x="3.5" y="9.5" fill="#000"/>
    <rect width="1" height="1" x="3.25" y="10.75" fill="#000" transform="rotate(90 3.75 11)"/>
    <rect width="1" height="1" x="3.25" y="12.75" fill="#000" transform="rotate(90 3.75 13)"/>
    <rect width="1" height="1" x="11.75" y="10.75" fill="#000" transform="rotate(90 12.25 11)"/>
    <rect width="1" height="1" x="11.75" y="12.75" fill="#000" transform="rotate(90 12.25 13)"/>
    <rect width="1" height="1" x="5.5" y="9.5" fill="#000"/>
    <rect width="1" height="1" x="7.5" y="9.5" fill="#000"/>
    <rect width="1" height="1" x="9.5" y="9.5" fill="#000"/>
    <rect width="1" height="1" x="11.5" y="9.5" fill="#000"/>
    <rect width="1" height="1" x="4.5" y="13" fill="#000"/>
    <rect width="1" height="1" x="6.5" y="13" fill="#000"/>
    <rect width="1" height="1" x="8.5" y="13" fill="#000"/>
    <rect width="1" height="1" x="10.5" y="13" fill="#000"/>
    <rect width="1" height="1" x="3.5" y="7.5" fill="#000"/>
    <rect width="1" height="1" x="5.5" y="7.5" fill="#000"/>
    <rect width="1" height="1" x="7.5" y="7.5" fill="#000"/>
    <rect width="1" height="1" x="9.5" y="7.5" fill="#000"/>
    <rect width="1" height="1" x="11.5" y="7.5" fill="#000"/>
    <rect width="1" height="1" x="11.75" y="6.25" fill="#000" transform="rotate(90 12.25 6.5)"/>
    <rect width="1" height="1" x="3.25" y="6.25" fill="#000" transform="rotate(90 3.75 6.5)"/>
  </g>
</svg>
