<svg xmlns="http://www.w3.org/2000/svg" width="16" height="16" viewBox="0 0 16 16">
  <path d="M13.706987,6.79687395 C13.9332651,6.79687395 14.0748713,7.01504773 13.9582043,7.18625667 C13.3454045,8.08576426 12.2291968,8.68749849 10.9537916,8.68749849 C9.02624332,8.68749849 7.46227277,7.31305742 7.45020461,5.61353635 C7.43808779,3.9065602 9.02064719,2.49997852 10.9538402,2.5 C12.2278586,2.50002148 13.3430443,3.10046665 13.9562822,3.9983844 C14.0739954,4.1707535 13.9348952,4.39062454 13.7069384,4.39062454 L11.1484393,4.39062454 L10.1752005,5.59374924 L11.1484393,6.79687395 L13.706987,6.79687395 Z M9.53060003,8.79498479 L4.65827425,13.0972728 C4.05014594,13.6342317 3.06423063,13.6342531 2.45607799,13.0972728 C1.847974,12.5602925 1.847974,11.6897028 2.45607799,11.1527225 L7.32825778,6.85058488 C7.72144629,7.73567646 8.52784769,8.4476255 9.53060003,8.79498479 Z M4.53041499,11.7812477 C4.53041499,11.4964724 4.2689787,11.2656229 3.94647167,11.2656229 C3.62396464,11.2656229 3.36252834,11.4964724 3.36252834,11.7812477 C3.36252834,12.0660231 3.62396464,12.2968726 3.94647167,12.2968726 C4.2689787,12.2968726 4.53041499,12.0660231 4.53041499,11.7812477 Z" transform="matrix(-1 0 0 1 16 0)"/>
</svg>
